{
 "label": "PRODUCT_NAME",
 "description": "PRODUCT_DESC",
 "type": "0",
 "price": "1.86000000",
 "price_ttc": "2.23200000",
 "price_min": "0.00000000",
 "price_min_ttc": "0.00000000",
 "price_base_type": "HT",
 "multiprices": [],
 "multiprices_ttc": [],
 "multiprices_base_type": [],
 "multiprices_min": [],
 "multiprices_min_ttc": [],
 "multiprices_tva_tx": [],
 "multiprices_recuperableonly": [],
 "prices_by_qty": [],
 "prices_by_qty_list": [],
 "default_vat_code": null,
 "tva_tx": "20.000",
 "tva_npr": "0",
 "localtax1_tx": "0.000",
 "localtax2_tx": "0.000",
 "localtax1_type": "0",
 "localtax2_type": "0",
 "stock_reel": "26",
 "stock_theorique": null,
 "cost_price": null,
 "pmp": "1.55000000",
 "seuil_stock_alerte": "12",
 "desiredstock": "24",
 "duration_value": false,
 "duration_unit": "",
 "status": "1",
 "status_buy": "1",
 "finished": "1",
 "status_batch": "0",
 "customcode": "",
 "url": null,
 "weight": null,
 "weight_units": "1",
 "length": null,
 "length_units": "9",
 "surface": null,
 "surface_units": "15",
 "volume": null,
 "volume_units": "20",
 "accountancy_code_sell": "70760002",
 "accountancy_code_sell_intra": "",
 "accountancy_code_sell_export": "",
 "accountancy_code_buy": "",
 "barcode": "020000000104",
 "barcode_type": "4",
 "barcode_type_code": null,
 "barcodes_extra": [],
 "stats_propale": [],
 "stats_commande": [],
 "stats_contrat": [],
 "stats_facture": [],
 "stats_commande_fournisseur": [],
 "multilangs": [],
 "imgWidth": null,
 "imgHeight": null,
 "date_creation": "2020-01-22 16:12:24",
 "date_modification": "2020-04-25 00:00:24.651237",
 "product_fourn_id": null,
 "nbphoto": 0,
 "stock_warehouse": [],
 "fk_default_warehouse": "1",
 "fk_price_expression": null,
 "fourn_pu": null,
 "fourn_price_base_type": null,
 "fourn_socid": null,
 "ref_fourn": null,
 "ref_supplier": null,
 "fk_unit": null,
 "price_autogen": "0",
 "id": "106",
 "import_key": null,
 "array_options":
 {
   "options_meal_voucher_ok": null,
   "options_weeky_inventory": null,
   "options_bio": null,
   "options_toweight": null,
   "options_marque": "PRODUCT_BRAND",
   "options_categorie": "1",
   "options_scategorie": "67"
 },
 "linkedObjectsIds": null,
 "canvas": "",
 "fk_project": null,
 "contact": null,
 "contact_id": null,
 "thirdparty": null,
 "user": null,
 "origin": null,
 "origin_id": null,
 "ref": "ALC-01",
 "ref_ext": null,
 "statut": null,
 "country": null,
 "country_id": "1",
 "country_code": "FR",
 "state": null,
 "state_id": null,
 "state_code": null,
 "region": null,
 "region_code": null,
 "barcode_type_label": null,
 "barcode_type_coder": null,
 "mode_reglement_id": null,
 "cond_reglement_id": null,
 "cond_reglement": null,
 "fk_delivery_address": null,
 "shipping_method_id": null,
 "modelpdf": null,
 "last_main_doc": null,
 "fk_account": null,
 "note_public": null,
 "note_private": "PRODUCT_PRIVATE_NOTE",
 "note": "PRODUCT_PUBLIC_NOTE",
 "total_ht": null,
 "total_tva": null,
 "total_localtax1": null,
 "total_localtax2": null,
 "total_ttc": null,
 "lines": null,
 "comments": [],
 "fk_incoterms": null,
 "libelle_incoterms": null,
 "location_incoterms": null,
 "date_validation": null,
 "duration": "",
 "width": null,
 "width_units": "9",
 "height": null,
 "height_units": "9",
 "entity": "1"
}
