{
    "entity": "1",
    "name": "SUPPLIER_NAME",
    "name_alias": "",
    "particulier": null,
    "address": "SUPPLIER_POSTAL_ADRESS",
    "zip": "00000",
    "town": "SUPPLIER_TOWN",
    "status": "1",
    "state_id": "36",
    "state_code": "29",
    "state": "SUPPLIER_STATE",
    "region_code": null,
    "region": null,
    "departement_code": null,
    "departement": null,
    "pays": null,
    "phone": "0123456789",
    "fax": null,
    "email": "supplier@mail.com",
    "skype": null,
    "twitter": null,
    "facebook": null,
    "linkedin": null,
    "url": null,
    "barcode": null,
    "idprof1": "504964669",
    "idprof2": "5049646690015",
    "idprof3": "",
    "idprof4": "",
    "idprof5": "",
    "idprof6": "",
    "prefix_comm": null,
    "tva_assuj": "1",
    "tva_intra": "",
    "localtax1_assuj": null,
    "localtax1_value": "0.000",
    "localtax2_assuj": null,
    "localtax2_value": "0.000",
    "managers": null,
    "capital": "295000.00000000",
    "typent_id": "100",
    "typent_code": "TE_OTHER",
    "effectif": "1 - 5",
    "effectif_id": "1",
    "forme_juridique_code": "60",
    "forme_juridique": "Entreprise Individuelle à Responsabilité Limitée (EIRL)",
    "remise_percent": "",
    "remise_supplier_percent": "0",
    "mode_reglement_supplier_id": null,
    "cond_reglement_supplier_id": null,
    "fk_prospectlevel": "",
    "name_bis": null,
    "date_modification": 1576759379,
    "user_modification": "4",
    "date_creation": 1576759379,
    "user_creation": "4",
    "specimen": null,
    "client": "0",
    "prospect": 0,
    "fournisseur": "1",
    "code_client": null,
    "code_fournisseur": "SU1912-00002",
    "code_compta": null,
    "code_compta_client": null,
    "code_compta_fournisseur": "401NAME",
    "note": null,
    "note_private": null,
    "note_public": null,
    "stcomm_id": "0",
    "statut_commercial": "Never contacted",
    "price_level": null,
    "outstanding_limit": null,
    "order_min_amount": null,
    "supplier_order_min_amount": null,
    "commercial_id": null,
    "parent": null,
    "default_lang": null,
    "ref": "2",
    "ref_ext": null,
    "import_key": null,
    "webservices_url": null,
    "webservices_key": null,
    "logo": null,
    "logo_small": null,
    "logo_mini": null,
    "array_options": [],
    "fk_incoterms": "0",
    "location_incoterms": null,
    "libelle_incoterms": null,
    "fk_multicurrency": "1",
    "multicurrency_code": "EUR",
    "id": "2",
    "linkedObjectsIds": null,
    "canvas": null,
    "fk_project": null,
    "contact": null,
    "contact_id": null,
    "user": null,
    "origin": null,
    "origin_id": null,
    "statut": null,
    "country": "France",
    "country_id": "1",
    "country_code": "FR",
    "barcode_type": null,
    "barcode_type_code": null,
    "barcode_type_label": null,
    "barcode_type_coder": null,
    "mode_reglement_id": null,
    "cond_reglement_id": null,
    "cond_reglement": null,
    "fk_delivery_address": null,
    "shipping_method_id": null,
    "modelpdf": null,
    "last_main_doc": null,
    "fk_account": "0",
    "comments": [],
    "lastname": null,
    "firstname": null,
    "civility_id": null,
    "date_validation": null
  }